<?xml version="1.0" encoding="utf-8"?>
<!-- Generator: Adobe Illustrator 23.1.1, SVG Export Plug-In . SVG Version: 6.00 Build 0)  -->
<svg version="1.1" id="Layer_1" xmlns="http://www.w3.org/2000/svg" xmlns:xlink="http://www.w3.org/1999/xlink" x="0px" y="0px"
	 viewBox="0 0 50 50" style="enable-background:new 0 0 50 50;" xml:space="preserve">
<style type="text/css">
	.st0{fill:#5C1A89;}
</style>
<g>
	<g>
		
			<rect x="10.7" y="40" transform="matrix(0.3523 -0.9359 0.9359 0.3523 -26.7565 42.7469)" class="st0" width="13.7" height="1.5"/>
	</g>
	<g>
		<path class="st0" d="M15.1,47.8c-0.1,0-0.2,0-0.3,0c-0.4-0.1-0.6-0.6-0.4-0.9l4-10.5c0.1-0.4,0.6-0.6,0.9-0.4
			c0.4,0.1,0.6,0.6,0.4,0.9l-4,10.5C15.7,47.7,15.4,47.8,15.1,47.8z"/>
	</g>
	<g>
		
			<rect x="33.7" y="34.1" transform="matrix(0.9328 -0.3603 0.3603 0.9328 -11.0668 14.9124)" class="st0" width="1.5" height="6.2"/>
	</g>
	<g>
		<rect x="16.6" y="42.4" class="st0" width="16.6" height="1.5"/>
	</g>
	<g>
		<path class="st0" d="M36.9,47.8c-2.4,0-4.4-2-4.4-4.4s2-4.4,4.4-4.4c2.4,0,4.4,2,4.4,4.4S39.3,47.8,36.9,47.8z M36.9,40.5
			c-1.6,0-2.9,1.3-2.9,2.9s1.3,2.9,2.9,2.9c1.6,0,2.9-1.3,2.9-2.9S38.5,40.5,36.9,40.5z"/>
	</g>
	<g>
		<path class="st0" d="M20.2,27.1c-0.2,0-0.4-0.1-0.5-0.2c-1.1-1-2-2.3-2.5-3.6c-0.1-0.4,0-0.8,0.4-1c0.4-0.1,0.8,0,1,0.4
			c0.5,1.2,1.2,2.2,2.1,3.1c0.3,0.3,0.3,0.7,0.1,1C20.6,27,20.4,27.1,20.2,27.1z"/>
	</g>
	<g>
		<path class="st0" d="M41.5,19.5H11.6c-0.4,0-0.7-0.3-0.7-0.7c0-0.4,0.3-0.7,0.7-0.7h29.8c0.4,0,0.7,0.3,0.7,0.7
			C42.2,19.2,41.9,19.5,41.5,19.5z"/>
	</g>
	<g>
		<path class="st0" d="M26.6,33.9c-7.8,0-14.2-6.4-14.2-14.2v-0.9h1.5v0.9c0,7,5.7,12.7,12.7,12.7c7,0,12.7-5.7,12.7-12.7v-0.9h1.5
			v0.9C40.8,27.5,34.4,33.9,26.6,33.9z"/>
	</g>
	<g>
		<path class="st0" d="M13.3,23H8.5c-0.4,0-0.7-0.3-0.7-0.7c0-0.4,0.3-0.7,0.7-0.7h4.8c0.4,0,0.7,0.3,0.7,0.7
			C14,22.7,13.7,23,13.3,23z"/>
	</g>
	<g>
		<g>
			<path class="st0" d="M19.4,16c-0.2,0-0.4-0.1-0.5-0.2c-0.3-0.3-0.3-0.8,0-1c0.7-0.7,1.1-1.3,1.1-1.9c0-0.4-0.2-0.9-0.7-1.4
				c-0.8-0.9-1.2-1.8-1.2-2.8c0.1-1.6,1.4-2.7,1.5-2.8c0.3-0.3,0.8-0.2,1,0.1c0.3,0.3,0.2,0.8-0.1,1c0,0-0.9,0.8-0.9,1.7
				c0,0.6,0.2,1.1,0.8,1.7c0.7,0.8,1.1,1.6,1.1,2.4c0,1-0.6,2-1.6,2.9C19.7,15.9,19.6,16,19.4,16z"/>
		</g>
		<g>
			<path class="st0" d="M32.9,16c-0.2,0-0.4-0.1-0.5-0.2c-0.3-0.3-0.3-0.8,0-1c0.7-0.7,1.1-1.3,1.1-1.9c0-0.4-0.2-0.9-0.7-1.4
				c-0.8-0.9-1.2-1.8-1.2-2.8c0.1-1.6,1.4-2.7,1.5-2.8c0.3-0.3,0.8-0.2,1,0.1c0.3,0.3,0.2,0.8-0.1,1c0,0-0.9,0.8-0.9,1.7
				c0,0.6,0.2,1.1,0.8,1.7c0.7,0.8,1.1,1.6,1.1,2.4c0,1-0.6,2-1.6,2.9C33.3,15.9,33.1,16,32.9,16z"/>
		</g>
		<g>
			<path class="st0" d="M26.2,16c-0.2,0-0.3,0-0.4-0.2c-0.3-0.2-0.4-0.7-0.1-1c1.9-2.5,1.2-4.1,0.5-5.2c-2.1-3-0.7-6,0.3-7.2
				c0.3-0.3,0.7-0.3,1-0.1c0.3,0.3,0.3,0.7,0.1,1c-0.1,0.1-2.2,2.6-0.2,5.4c1.5,2.2,1.3,4.5-0.5,6.9C26.6,15.9,26.4,16,26.2,16z"/>
		</g>
	</g>
</g>
</svg>
