<?xml version="1.0" encoding="utf-8"?>
<!-- Generator: Adobe Illustrator 23.1.1, SVG Export Plug-In . SVG Version: 6.00 Build 0)  -->
<svg version="1.1" id="Layer_1" xmlns="http://www.w3.org/2000/svg" xmlns:xlink="http://www.w3.org/1999/xlink" x="0px" y="0px"
	 viewBox="0 0 50 50" style="enable-background:new 0 0 50 50;" xml:space="preserve">
<style type="text/css">
	.st0{fill:#5C1A89;}
</style>
<g>
	<path class="st0" d="M32.4,10.6c-0.4-0.4-1.1-0.4-1.6,0c-0.4,0.4-0.4,1.1,0,1.6c3.3,3.3,3.3,8.5,0,11.8c-0.4,0.4-0.4,1.1,0,1.6
		c0.1,0.1,0.4,0.3,0.7,0.3c0.3,0,0.6-0.1,0.7-0.3C36.5,21.3,36.5,14.6,32.4,10.6z"/>
	<path class="st0" d="M19.1,23.8c-3.3-3.3-3.3-8.5,0-11.8c0.4-0.4,0.4-1.1,0-1.6c-0.4-0.4-1.1-0.4-1.6,0c-4.1,4.1-4.1,10.8,0,14.9
		c0.1,0.1,0.4,0.3,0.7,0.3c0.3,0,0.6-0.1,0.7-0.3C19.5,24.9,19.5,24.2,19.1,23.8z"/>
	<path class="st0" d="M36.3,6.8c-0.4-0.4-1.1-0.4-1.6,0s-0.4,1.1,0,1.6c5.4,5.4,5.4,14,0,19.3c-0.4,0.4-0.4,1.1,0,1.6
		c0.1,0.1,0.4,0.3,0.7,0.3s0.6-0.1,0.7-0.3C42.4,23,42.4,12.9,36.3,6.8z"/>
	<path class="st0" d="M11.4,18c0-3.7,1.4-7.1,4-9.6c0.4-0.4,0.4-1.1,0-1.6s-1.1-0.4-1.6,0c-3,3-4.7,6.9-4.7,11.2s1.7,8.2,4.7,11.2
		c0.1,0.1,0.4,0.3,0.7,0.3c0.3,0,0.6-0.1,0.7-0.3c0.4-0.4,0.4-1.1,0-1.6C12.9,25.1,11.4,21.7,11.4,18z"/>
	<path class="st0" d="M39.8,3.2c-0.4-0.4-1.1-0.4-1.6,0s-0.4,1.1,0,1.6c3.5,3.5,5.4,8.2,5.4,13.2s-2,9.6-5.4,13.2
		c-0.4,0.4-0.4,1.1,0,1.6c0.1,0.1,0.4,0.3,0.7,0.3s0.6-0.1,0.7-0.3c4-4,6.1-9.1,6.1-14.7C45.8,12.5,43.6,7.2,39.8,3.2z"/>
	<path class="st0" d="M11.9,4.8c0.4-0.4,0.4-1.1,0-1.6s-1.1-0.4-1.6,0c-8.1,8.1-8.1,21.3,0,29.4c0.1,0.1,0.4,0.3,0.7,0.3
		c0.3,0,0.6-0.1,0.7-0.3c0.4-0.4,0.4-1.1,0-1.6C4.6,23.8,4.6,12,11.9,4.8z"/>
	<path class="st0" d="M29.7,44.8h-3.5V23.1c2.4-0.6,4.1-2.6,4.1-5.1c0-2.8-2.3-5.2-5.2-5.2S19.8,15,19.8,18c0,2.6,1.8,4.5,4.1,5.1
		v21.7h-3.5c-0.6,0-1.1,0.4-1.1,1.1c0,0.6,0.4,1.1,1.1,1.1h9.2c0.6,0,1.1-0.4,1.1-1.1C30.7,45.2,30.3,44.8,29.7,44.8z"/>
</g>
</svg>
