<?xml version="1.0" encoding="utf-8"?>
<!-- Generator: Adobe Illustrator 23.1.1, SVG Export Plug-In . SVG Version: 6.00 Build 0)  -->
<svg version="1.1" id="Layer_1" xmlns="http://www.w3.org/2000/svg" xmlns:xlink="http://www.w3.org/1999/xlink" x="0px" y="0px"
	 viewBox="0 0 50 50" style="enable-background:new 0 0 50 50;" xml:space="preserve">
<style type="text/css">
	.st0{fill:#5C2C85;stroke:#5C2C85;stroke-width:0.25;stroke-miterlimit:10;}
</style>
<g id="_x33_2_electric_fan">
</g>
<g id="outline">
	<path class="st0" d="M37.5,29.4c-1,0-2,0.2-2.9,0.5l-2-4.4l3.7,0.5l0.6,0.8c0.1,0.2,0.4,0.3,0.6,0.3h-2.2v1.5h2.2
		c0.8,0,1.5-0.3,2.1-0.9c0.2-0.2,0.4-0.5,0.5-0.7c0.2-0.1,0.3-0.4,0.3-0.6v-3c0-0.3-0.2-0.6-0.5-0.7l-6.9-2.1v-6.2
		c0-0.7-0.2-1.5-0.7-2.1c2,0,3.6-1.7,3.6-3.7V6.6c0-2-1.7-3.7-3.7-3.7h-1.5c-2,0-3.7,1.7-3.7,3.7c0,0.4,0.3,0.7,0.7,0.7h0.7v1.5
		c0,0.1,0,0.2,0,0.3c-1.7-1-3.7-1-5.4,0l-7.7,4.7c-2,1.2-3.2,3.4-3.2,5.7v2c0,2,1.2,3.8,3,4.5l1.6,0.6l0.3,0.8L16,30.1
		c-4.5-1.9-9.7,0.1-11.6,4.6s0.1,9.7,4.6,11.6c4.5,1.9,9.7-0.1,11.6-4.6c0.1-0.3,0.2-0.5,0.3-0.8c0.7,1.5,2.4,2.1,3.9,1.4
		c0.4-0.2,0.8-0.5,1.1-0.9l3.5,0.4c0,0,0.1,0,0.1,0c0,0,0,0,0.1,0c2,4.4,7.3,6.4,11.7,4.4s6.4-7.3,4.4-11.7
		C44.2,31.4,41,29.4,37.5,29.4z M35.1,34.6l1.8,4l1.3-0.6l-1.8-4c2.4-0.6,4.8,0.8,5.4,3.2c0.6,2.4-0.8,4.8-3.2,5.4
		c-2.4,0.6-4.8-0.8-5.4-3.2C32.8,37.6,33.5,35.6,35.1,34.6L35.1,34.6z M39,24.1v1.7h-1.1L37.4,25c-0.1-0.2-0.3-0.3-0.5-0.3l-6.5-0.9
		c-0.6-0.1-1-0.6-1-1.2v-2.8h2.2v1.5c0,0.3,0.2,0.6,0.5,0.7L39,24.1z M30.2,25.2l0.7,0.1l0.5,1.2h-2.5c-0.3-0.7-0.8-1.2-1.4-1.6
		l-6.9-4v-2l7.2-2.6l0.2,0.2v6.1C28,23.9,28.9,25,30.2,25.2z M29.2,28.4c0-0.1,0-0.3,0-0.4h2.9l0.2,0.5l-3.7,4.2L29.2,28.4z
		 M34.6,8.8c0,1.2-1,2.2-2.2,2.2c-1.2,0-2.2-1-2.2-2.2V7.3h4.4V8.8z M30.9,4.3h1.5c0.1,0,0.3,0,0.4,0c0,0,0.1,0,0.1,0
		c0.1,0,0.2,0,0.3,0.1c0,0,0.1,0,0.1,0.1c0.1,0,0.2,0.1,0.2,0.1c0,0,0.1,0,0.1,0.1c0.1,0.1,0.2,0.2,0.3,0.2c0,0,0,0,0,0.1
		c0.1,0.1,0.1,0.2,0.2,0.2c0,0,0,0.1,0.1,0.1c0,0.1,0.1,0.2,0.1,0.2c0,0,0,0.1,0.1,0.1c0,0,0,0,0,0.1h-5.6C29.1,4.9,30,4.3,30.9,4.3
		z M16.4,15.1l7.7-4.7c1.4-0.8,3.1-0.7,4.4,0.4l2.4,2.1c0.5,0.4,0.8,1,0.8,1.7v3.8h-2.2v-2.2c0-0.2-0.1-0.4-0.2-0.5l-0.7-0.7
		c-0.2-0.2-0.5-0.3-0.8-0.2l-8.1,3c-0.3,0.1-0.5,0.4-0.5,0.7v0.7H14C14.1,17.4,15,15.9,16.4,15.1z M16,24.6
		c-1.3-0.5-2.1-1.7-2.1-3.1v-0.9h5.2v0.7c0,0.3,0.1,0.5,0.4,0.6l3.1,1.8l-1.6,2.7h-0.2L16,24.6z M11.8,38.6c0.1,0.2,0.3,0.4,0.6,0.4
		l4.3,0.6c-0.7,2.3-3.2,3.7-5.5,2.9c-2.3-0.7-3.7-3.2-2.9-5.5c0.7-2.3,3.2-3.7,5.5-2.9c0,0,0.1,0,0.1,0l-2.1,3.8
		C11.7,38.1,11.7,38.4,11.8,38.6z M13.6,37.7l1.5-2.9c1,0.8,1.7,2,1.7,3.3L13.6,37.7z M12.5,45.7c-4.1,0-7.4-3.3-7.4-7.4
		c0-4.1,3.3-7.4,7.4-7.4c1,0,1.9,0.2,2.8,0.6l-0.7,1.3c-3-1.2-6.5,0.4-7.6,3.4c-1.2,3,0.4,6.5,3.4,7.6c3,1.2,6.5-0.4,7.6-3.4
		c0.1-0.2,0.1-0.4,0.2-0.6l1.5,0.2C18.8,43.3,15.9,45.6,12.5,45.7z M19.8,38.5l-1.5-0.2c0,0,0,0,0,0c0-1.9-0.9-3.7-2.5-4.8l0.7-1.3
		c2,1.4,3.3,3.7,3.3,6.1C19.8,38.4,19.8,38.4,19.8,38.5z M17.3,30.8l0.9-1.7l2.4,5.7C19.9,33.2,18.7,31.8,17.3,30.8z M21.3,37.8
		c0-1-0.3-2-0.7-3l1.1,2.6C21.6,37.5,21.4,37.7,21.3,37.8L21.3,37.8z M22.2,40.3l0.6,0.1v0c0,0.4,0.3,0.7,0.6,0.8
		C22.9,41.2,22.4,40.8,22.2,40.3L22.2,40.3z M23,36.7l-3.8-8.8h1.2l3.1,1.2L23,36.7z M22.2,27.1l1.6-2.6l2.9,1.7
		c0.7,0.4,1.1,1.2,1,2l-1.2,9.2L24.5,37l0.5-8.2c0-0.3-0.2-0.6-0.5-0.7L22.2,27.1z M28.7,40.4l-4.4-0.5l0.1-1.4l2.5,0.5l1.8,1.2
		V40.4z M28.7,38.3c0,0,0,0.1,0,0.1L28,37.9l0.3-2.6L33,30l0.3,0.6C30.4,32.1,28.7,35.1,28.7,38.3z M37.5,45.7
		c-4.1,0-7.4-3.3-7.4-7.4c0-2.6,1.4-5.1,3.7-6.4l0.6,1.4c-2.7,1.7-3.6,5.3-1.9,8c1.7,2.7,5.3,3.6,8,1.9s3.6-5.3,1.9-8
		c-1.4-2.2-4.1-3.3-6.6-2.5l-0.6-1.3c3.9-1.3,8,0.8,9.3,4.6c1.3,3.9-0.8,8-4.6,9.3C39.2,45.5,38.3,45.7,37.5,45.7z"/>
</g>
</svg>
