<?xml version="1.0" encoding="utf-8"?>
<!-- Generator: Adobe Illustrator 23.1.1, SVG Export Plug-In . SVG Version: 6.00 Build 0)  -->
<svg version="1.1" id="Layer_1" xmlns="http://www.w3.org/2000/svg" xmlns:xlink="http://www.w3.org/1999/xlink" x="0px" y="0px"
	 viewBox="0 0 50 50" style="enable-background:new 0 0 50 50;" xml:space="preserve">
<style type="text/css">
	.st0{fill:#5C1A89;}
	.st1{fill:#5C1A89;stroke:#5C1A89;stroke-width:0.25;stroke-miterlimit:10;}
</style>
<g>
	<g id="zCUQQj_1_">
		<g>
			<path class="st0" d="M2,33.5c-0.1-1.6,0.4-3,1.5-4.2c1-1,2.2-1.4,3.6-1.4c1.6,0,3.1,0,4.7,0c2.4,0,4.6,1.9,4.8,4.3
				c0.1,0.7,0.1,1.4,0.1,2.1c0,0.6-0.5,1-1.1,1c-1.4,0-2.9,0-4.3,0c-0.3,0-0.5,0.1-0.6,0.3c-0.2,0.3-0.4,0.6-0.7,0.8
				c-0.4,0.4-0.8,0.4-1.2,0c-0.3-0.3-0.5-0.5-0.7-0.8c-0.2-0.2-0.3-0.3-0.6-0.3c-1.4,0-2.9,0-4.3,0c-0.8,0-1.2-0.4-1.2-1.2
				C2,33.9,2,33.7,2,33.5z M10.4,28.9c0.4,1.8,0.9,3.6,1.3,5.3c1.3,0,2.6,0,3.9,0C16,30.4,13.8,28.5,10.4,28.9z M8.3,28.9
				c-3.8-0.4-5.8,1.9-5.2,5.4c1.3,0,2.6,0,3.9,0C7.4,32.5,7.8,30.7,8.3,28.9z M9.3,35.6c0.4-0.5,0.8-1,1.2-1.5
				c0.1-0.1,0.1-0.2,0-0.3c-0.3-1.3-0.6-2.6-1-3.8c-0.1-0.3-0.1-0.5-0.2-0.8c-0.1,0.1-0.1,0.1-0.1,0.1c-0.4,1.5-0.8,3.1-1.2,4.6
				c0,0.1,0,0.2,0,0.3C8.5,34.5,8.9,35,9.3,35.6z"/>
			<path class="st0" d="M8.9,15.2c1.7,0,3,0.5,4.4,1.2c0.3,0.2,0.4,0.4,0.4,0.7c-0.1,0.8-0.2,1.5-0.8,2c-0.2,0.1-0.2,0.8,0,1.1
				c0.9,1.6,0.9,3.3-0.1,4.9c-0.9,1.4-2.1,2.1-3.8,1.9c-1.7-0.2-2.8-1.2-3.3-2.8c-0.5-1.2-0.4-2.5,0.1-3.7c0.1-0.1,0-0.3,0-0.4
				c0-0.2,0-0.4,0-0.6c0-0.2-0.1-0.4-0.3-0.6c-0.6-0.5-0.7-1.2-0.7-2c0-0.2,0.2-0.5,0.4-0.6C6.3,15.6,7.6,15.3,8.9,15.2z M9.4,20.7
				c-0.7,0-1.5,0-2.2,0c-0.3,0-0.4,0.1-0.5,0.3c-0.5,1.1-0.5,2.2,0.1,3.3c0.7,1.5,2.4,2.2,3.8,1.5c1.9-0.9,2.4-3.4,1.5-5
				c0-0.1-0.2-0.1-0.3-0.1C10.9,20.7,10.1,20.7,9.4,20.7z M9.2,18.4c0.8,0,1.5,0,2.3,0c0.8,0,1-0.2,1.1-0.9c0-0.2,0-0.3-0.2-0.4
				c-0.7-0.2-1.4-0.6-2.1-0.7c-1.5-0.3-2.9-0.1-4.2,0.6c-0.1,0.1-0.3,0.2-0.3,0.3c-0.1,0.6,0.4,1.1,0.9,1.1
				C7.5,18.4,8.4,18.4,9.2,18.4z M9.2,19.7c0.7,0,1.5,0,2.2,0c0.1,0,0.1-0.1,0.2-0.1c-0.1,0-0.1-0.1-0.2-0.1c-1.5,0-3,0-4.5,0
				c-0.1,0-0.2,0.1-0.2,0.1c0.1,0,0.2,0.1,0.2,0.1C7.7,19.7,8.5,19.7,9.2,19.7z"/>
			<path class="st0" d="M5.3,32.8c-0.4,0-0.8,0-1.1,0c-0.4,0-0.5-0.2-0.5-0.5c0-0.3,0.2-0.5,0.5-0.5c0.7,0,1.5,0,2.2,0
				c0.3,0,0.6,0.2,0.5,0.5c0,0.3-0.2,0.5-0.5,0.5C6,32.8,5.6,32.8,5.3,32.8z"/>
		</g>
	</g>
	<g id="p6rGbf_1_">
		<g>
			<path class="st1" d="M47.8,36.7c-0.1-0.1-0.3,0-0.4,0c-0.5,0-1,0-1.6,0c0-0.2,0-0.4,0-0.5c0-2.8,0-5.7,0-8.5c0-0.4,0-0.8-0.1-1.1
				c-0.4-1.6-1.5-2.6-3-3.1c-0.5-0.2-0.9-0.2-1.4-0.3c0-0.1,0-0.3,0-0.4c0-1.7,0-3.3,0-5c0-0.4,0-0.8-0.1-1.2
				c-0.5-2.3-2.5-3.9-4.9-3.9c-4.2,0-8.4,0-12.6,0c-2.9,0-5.1,2.1-5.1,5.1c0,1.7,0,3.4,0,5c0,0.1,0,0.3,0,0.4
				c-0.2,0-0.3,0.1-0.4,0.1c-2.3,0.3-3.8,1.8-4.1,4c0.2,0,0.5,0.1,0.7,0.2c0.1-2,1.8-3.1,3.2-3.3c0.4-0.1,0.7-0.1,1.1-0.1
				c7.3,0,14.6,0,21.8,0c1,0,2,0.3,2.8,0.9c0.8,0.6,1.3,1.5,1.3,2.5c0,3,0,6.1,0,9.1c0,0.1,0,0.1,0,0.2c-1,0-2,0-3,0
				c0-0.3,0-0.6,0-1c0-1,0-1.9,0-2.9c0-0.6-0.1-0.6-0.6-0.6c-1.8,0-3.6,0-5.4,0c-5.8,0-11.5,0-17.3,0c-0.8,0-0.8,0-0.8,0.8
				c0,1.1,0,2.2,0,3.2c0,0.1,0,0.3,0,0.4c-1,0-2,0-3,0c0-0.2,0-0.3,0-0.4c0-0.1,0-0.2,0-0.4c-0.2,0.1-0.5,0.1-0.8,0.2
				c0,0.1,0,0.1,0,0.2c0,0.2,0,0.3,0,0.5c-0.4,0-0.8,0-1.2,0c-0.4,0-0.8,0-1.1,0c-0.1,0-0.3,0.2-0.4,0.4c0.1,0.1,0.3,0.3,0.4,0.4
				c0.1,0,0.2,0,0.2,0c11.8,0,23.6,0,35.4,0c0.1,0,0.3,0,0.4,0c0.1-0.1,0.3-0.2,0.3-0.4C48,37,47.9,36.8,47.8,36.7z M28,23.1
				c-1.9,0-3.7,0-5.6,0c-0.1-1.3-0.2-2.5,1.1-3.3c1.1-0.7,2.3-0.7,3.5-0.1C28.3,20.4,28,21.8,28,23.1z M37.5,23.1
				c-1.9,0-3.7,0-5.6,0c0-0.6-0.1-1.2,0-1.7c0.1-1,1-1.8,2-2c0.6-0.1,1.1-0.1,1.7,0c1.1,0.1,1.8,1,1.8,2.1
				C37.5,22,37.5,22.5,37.5,23.1z M40.5,22.7c0,0.1,0,0.2,0,0.4c-0.8,0-1.5,0-2.2,0c0-0.5,0-1,0-1.5c0-1.3-0.8-2.4-2-2.8
				c-1-0.3-2.1-0.3-3.1,0c-1.2,0.4-2.1,1.7-2.1,3c0,0.4,0,0.8,0,1.3c-0.7,0-1.5,0-2.2,0c0-0.5,0-1,0-1.5c0-1.4-0.9-2.6-2.3-2.9
				c-1.4-0.2-2.7-0.3-3.9,0.8c-0.7,0.6-1,1.4-1,2.3c0,0.4,0,0.8,0,1.3c-0.8,0-1.5,0-2.2,0c0-0.1,0-0.3,0-0.4c0-1.7,0-3.4,0-5.1
				c0-2.5,1.8-4.2,4.2-4.2c4.2,0,8.5,0,12.7,0c2.4,0,4.2,1.8,4.2,4.2C40.5,19.3,40.5,21,40.5,22.7z M41.2,36.6c-7.5,0-15,0-22.6,0
				c0-1.2,0-2.4,0-3.7c7.5,0,15,0,22.6,0C41.2,34.2,41.2,35.4,41.2,36.6z"/>
			<path class="st1" d="M29.5,30.7c-3.4,0-6.8,0-10.3,0c-0.1,0-0.3,0-0.4,0c-0.1-0.1-0.3-0.2-0.3-0.3c0-0.1,0.1-0.3,0.2-0.4
				c0.1-0.1,0.3-0.1,0.4-0.1c6.9,0,13.7,0,20.6,0c0.1,0,0.2,0,0.3,0c0.1,0.1,0.3,0.3,0.3,0.4c0,0.1-0.2,0.3-0.4,0.4
				c-0.1,0-0.2,0-0.3,0C36.3,30.7,32.9,30.7,29.5,30.7z"/>
		</g>
	</g>
</g>
</svg>
