<?xml version="1.0" encoding="utf-8"?>
<!-- Generator: Adobe Illustrator 23.1.1, SVG Export Plug-In . SVG Version: 6.00 Build 0)  -->
<svg version="1.1" id="Layer_1" xmlns="http://www.w3.org/2000/svg" xmlns:xlink="http://www.w3.org/1999/xlink" x="0px" y="0px"
	 viewBox="0 0 50 50" style="enable-background:new 0 0 50 50;" xml:space="preserve">
<style type="text/css">
	.st0{fill:#5C1A89;stroke:#5C1A89;stroke-width:0.25;stroke-miterlimit:10;}
</style>
<g>
	<g>
		<path class="st0" d="M12.3,45.6H5.6c-1.1,0-2-0.9-2-2V11.5c0-0.3,0-1,4.9-5.8l0.5-0.5l0.5,0.5c4.9,4.8,4.9,5.6,4.9,5.8v6.7H13
			v-6.6c-0.3-0.6-2.2-2.6-4-4.5c-1.8,1.8-3.8,3.9-4,4.5v32c0,0.4,0.3,0.7,0.7,0.7h6.7c0.4,0,0.7-0.3,0.7-0.7v-5.4h1.3v5.4
			C14.3,44.7,13.4,45.6,12.3,45.6z M13,11.6L13,11.6L13,11.6z M4.9,11.6L4.9,11.6L4.9,11.6z"/>
	</g>
	<g>
		<rect x="13" y="20.8" class="st0" width="1.3" height="14.7"/>
	</g>
	<g>
		<path class="st0" d="M28.3,45.6h-6.7c-1.1,0-2-0.9-2-2v-5.4H21v5.4c0,0.4,0.3,0.7,0.7,0.7h6.7c0.4,0,0.7-0.3,0.7-0.7v-5.4h1.3v5.4
			C30.4,44.7,29.5,45.6,28.3,45.6z"/>
	</g>
	<g>
		<rect x="29" y="20.8" class="st0" width="1.3" height="14.7"/>
	</g>
	<g>
		<path class="st0" d="M30.4,18.1H29v-6.6c-0.2-0.6-2.2-2.9-4-5.1c-1.9,2.1-3.8,4.5-4,5.1v6.6h-1.3v-6.7c0-0.2,0-1,4.9-6.5L25,4.4
			L25.5,5c4.9,5.5,4.9,6.2,4.9,6.5V18.1z"/>
	</g>
	<g>
		<rect x="19.6" y="20.8" class="st0" width="1.3" height="14.7"/>
	</g>
	<g>
		<rect x="35.7" y="20.8" class="st0" width="1.3" height="14.7"/>
	</g>
	<g>
		<path class="st0" d="M44.4,45.6h-6.7c-1.1,0-2-0.9-2-2v-5.4H37v5.4c0,0.4,0.3,0.7,0.7,0.7h6.7c0.4,0,0.7-0.3,0.7-0.7V11.5
			c-0.2-0.6-2.2-2.9-4-5.1c-1.9,2.1-3.8,4.5-4,5.1v6.6h-1.3v-6.7c0-0.2,0-1,4.9-6.5l0.5-0.6L41.6,5c4.9,5.5,4.9,6.2,4.9,6.5v32.1
			C46.4,44.7,45.5,45.6,44.4,45.6z M45.1,11.6L45.1,11.6L45.1,11.6z M37,11.6L37,11.6L37,11.6z"/>
	</g>
	<g>
		<rect x="29.7" y="33.5" class="st0" width="6.7" height="1.3"/>
	</g>
	<g>
		<rect x="13.6" y="33.5" class="st0" width="6.7" height="1.3"/>
	</g>
	<g>
		<rect x="13.6" y="38.9" class="st0" width="6.7" height="1.3"/>
	</g>
	<g>
		<rect x="29.7" y="38.9" class="st0" width="6.7" height="1.3"/>
	</g>
	<g>
		<rect x="29.7" y="16.1" class="st0" width="6.7" height="1.3"/>
	</g>
	<g>
		<rect x="13.6" y="16.1" class="st0" width="6.7" height="1.3"/>
	</g>
	<g>
		<rect x="13.6" y="21.5" class="st0" width="6.7" height="1.3"/>
	</g>
	<g>
		<rect x="29.7" y="21.5" class="st0" width="6.7" height="1.3"/>
	</g>
</g>
</svg>
