<?xml version="1.0" encoding="utf-8"?>
<!-- Generator: Adobe Illustrator 23.1.1, SVG Export Plug-In . SVG Version: 6.00 Build 0)  -->
<svg version="1.1" id="Layer_1" xmlns="http://www.w3.org/2000/svg" xmlns:xlink="http://www.w3.org/1999/xlink" x="0px" y="0px"
	 viewBox="0 0 50 50" style="enable-background:new 0 0 50 50;" xml:space="preserve">
<style type="text/css">
	.st0{fill:#5C1A89;stroke:#5C1A89;stroke-width:0.25;stroke-miterlimit:10;}
</style>
<g>
	<g id="washing_machine">
		<g>
			<path class="st0" d="M25.1,17.7c-5.9,0-10.8,4.8-10.8,10.7c0,5.9,4.8,10.7,10.8,10.7s10.8-4.8,10.8-10.7
				C35.8,22.5,31,17.7,25.1,17.7z M25.1,37.7c-5.2,0-9.4-4.2-9.4-9.3s4.2-9.3,9.4-9.3s9.4,4.2,9.4,9.3
				C34.4,33.6,30.2,37.7,25.1,37.7z"/>
			<path class="st0" d="M16.6,11.9c1.5,0,2.8-1.2,2.8-2.8s-1.3-2.8-2.8-2.8s-2.8,1.2-2.8,2.8S15.1,11.9,16.6,11.9z M16.6,7.7
				c0.8,0,1.4,0.6,1.4,1.4s-0.6,1.4-1.4,1.4s-1.4-0.6-1.4-1.4C15.2,8.3,15.8,7.7,16.6,7.7z"/>
			<path class="st0" d="M32.1,9.8c0.2,0,0.4-0.1,0.5-0.2c0.1-0.1,0.2-0.3,0.2-0.5s-0.1-0.4-0.2-0.5c-0.3-0.3-0.7-0.3-1,0
				c-0.1,0.1-0.2,0.3-0.2,0.5s0.1,0.4,0.2,0.5C31.7,9.7,31.9,9.8,32.1,9.8z"/>
			<path class="st0" d="M29.3,9.8c0.2,0,0.4-0.1,0.5-0.2C29.9,9.5,30,9.3,30,9.1s-0.1-0.4-0.2-0.5c-0.3-0.3-0.7-0.3-1,0
				c-0.1,0.1-0.2,0.3-0.2,0.5c0,0.2,0.1,0.4,0.2,0.5C28.9,9.7,29.1,9.8,29.3,9.8z"/>
			<path class="st0" d="M34.9,9.8c0.2,0,0.4-0.1,0.5-0.2c0.1-0.1,0.2-0.3,0.2-0.5s-0.1-0.4-0.2-0.5c-0.3-0.3-0.7-0.3-1,0
				c-0.1,0.1-0.2,0.3-0.2,0.5s0.1,0.4,0.2,0.5C34.5,9.7,34.7,9.8,34.9,9.8z"/>
			<path class="st0" d="M39.8,3.4H10.4c-1.2,0-2.2,1-2.2,2.2v37.9c0,1.2,1,2.2,2.2,2.2h29.4c1.2,0,2.2-1,2.2-2.2V5.7
				C42,4.4,41,3.4,39.8,3.4z M10.4,4.8h29.4c0.5,0,0.8,0.4,0.8,0.8v7.6h-31V5.7C9.5,5.2,9.9,4.8,10.4,4.8z M39.8,44.3H10.4
				c-0.5,0-0.8-0.4-0.8-0.8V14.7h31v28.8C40.6,44,40.2,44.3,39.8,44.3z"/>
			<path class="st0" d="M28.9,29.1c-0.8,0-1.1-0.2-1.6-0.5c-0.5-0.3-1.1-0.7-2.3-0.7c-1.2,0-1.8,0.4-2.3,0.7
				c-0.4,0.3-0.8,0.5-1.5,0.5s-1.1-0.2-1.5-0.5c-0.5-0.3-1.1-0.7-2.3-0.7c-0.4,0-0.7,0.3-0.7,0.7c0,0.4,0.3,0.7,0.7,0.7
				c0.8,0,1.1,0.2,1.5,0.5c0.5,0.3,1.1,0.7,2.3,0.7c1.2,0,1.8-0.4,2.3-0.7c0.4-0.3,0.8-0.5,1.5-0.5c0.8,0,1.1,0.2,1.6,0.5
				c0.5,0.3,1.1,0.7,2.3,0.7c1.2,0,1.8-0.4,2.3-0.7c0.4-0.3,0.8-0.5,1.6-0.5c0.4,0,0.7-0.3,0.7-0.7c0-0.4-0.3-0.7-0.7-0.7
				c-1.2,0-1.8,0.4-2.3,0.7C30,28.9,29.7,29.1,28.9,29.1z"/>
			<path class="st0" d="M26.3,22.6c1.5,0.3,2.8,1.2,3.7,2.4c0.1,0.2,0.4,0.3,0.6,0.3c0.1,0,0.3,0,0.4-0.1c0.3-0.2,0.4-0.7,0.2-1
				c-1.1-1.6-2.7-2.6-4.6-3c-0.4-0.1-0.8,0.2-0.8,0.6C25.7,22.1,25.9,22.5,26.3,22.6z"/>
		</g>
	</g>
	<g id="Warstwa_1">
	</g>
</g>
</svg>
