<?xml version="1.0" encoding="utf-8"?>
<!-- Generator: Adobe Illustrator 23.1.1, SVG Export Plug-In . SVG Version: 6.00 Build 0)  -->
<svg version="1.1" id="Layer_1" xmlns="http://www.w3.org/2000/svg" xmlns:xlink="http://www.w3.org/1999/xlink" x="0px" y="0px"
	 viewBox="0 0 50 50" style="enable-background:new 0 0 50 50;" xml:space="preserve">
<style type="text/css">
	.st0{fill:none;stroke:#5C2C85;stroke-width:2;stroke-miterlimit:10;}
	.st1{fill:#5C2C85;}
</style>
<g id="_x33_2_electric_fan">
</g>
<g id="Warstwa_1">
</g>
<path class="st0" d="M33.3,45.3H16.7c-6.6,0-12-5.4-12-12V16.7c0-6.6,5.4-12,12-12h16.5c6.6,0,12,5.4,12,12v16.5
	C45.3,39.9,39.9,45.3,33.3,45.3z"/>
<path class="st1" d="M35,15.4c-6.6,4.1-11.4,9.2-13.3,11.5l-5-3.9c-0.1-0.1-2.9,2.3-2.8,2.4l9,9.2c0.1,0.1,0.2,0.1,0.3,0.1
	c0,0,0,0,0.1,0c0.1,0,0.2-0.1,0.3-0.2C25,30.7,29.8,22.9,36,17.2c0.1-0.1,0.2-0.3,0.1-0.4C36.1,16.8,35.1,15.3,35,15.4L35,15.4z
	 M35,15.4"/>
</svg>
