<?xml version="1.0" encoding="utf-8"?>
<!-- Generator: Adobe Illustrator 23.1.1, SVG Export Plug-In . SVG Version: 6.00 Build 0)  -->
<svg version="1.1" id="Layer_1" xmlns="http://www.w3.org/2000/svg" xmlns:xlink="http://www.w3.org/1999/xlink" x="0px" y="0px"
	 viewBox="0 0 50 50" style="enable-background:new 0 0 50 50;" xml:space="preserve">
<style type="text/css">
	.st0{fill:#5C2C85;stroke:#5C2C85;stroke-width:0.25;stroke-miterlimit:10;}
</style>
<g id="_x33_2_electric_fan">
</g>
<g id="Warstwa_1">
</g>
<g>
	<g>
		<g>
			<rect x="22.3" y="6.3" class="st0" width="1.3" height="12"/>
			<path class="st0" d="M26.5,6.3h-1.5v1.3h1.5c1.5,0,2.7,1.2,2.7,2.7S27.9,13,26.5,13h-1.5v1.3h1.5c2.2,0,4-1.8,4-4
				S28.7,6.3,26.5,6.3z"/>
			<path class="st0" d="M19.7,35.4c0.7,0.1,1.1,0.7,1.2,1.3h-2.1v1.3h2.1V40h-2.1v1.3h3.5v-4.4c0-1.3-0.9-2.5-2.2-2.8l-7.5-2
				l-2.9-4.6c-0.3-0.5-0.9-0.9-1.5-0.9H3.6V28H8c0.1,0,0.3,0.1,0.4,0.2l2.5,3.8H3.6v1.3h8.3L19.7,35.4z"/>
			<path class="st0" d="M10.9,36.9c-0.7,0.7-1.2,1.7-1.2,2.8s0.4,2.1,1.2,2.8c0.7,0.7,1.8,1.2,2.9,1.2c2.2,0,4-1.8,4-4
				c0-1.1-0.4-2.1-1.2-2.8c-0.7-0.7-1.8-1.2-2.9-1.2C12.7,35.7,11.7,36.1,10.9,36.9z M16.5,39.7c0,1.5-1.2,2.7-2.7,2.7
				c-0.7,0-1.4-0.3-1.9-0.8s-0.8-1.2-0.8-1.9c0-0.7,0.3-1.4,0.8-1.9c0.5-0.5,1.2-0.8,1.9-0.8s1.4,0.3,1.9,0.8
				C16.1,38.3,16.5,39,16.5,39.7z"/>
			<rect x="3.6" y="40" class="st0" width="5.1" height="1.3"/>
			<rect x="3.6" y="34.7" class="st0" width="2.7" height="1.3"/>
			<path class="st0" d="M12.1,12.9c-0.4-1.4-1.5-2.4-2.9-2.7c0-0.1,0-0.1,0-0.2c0-3.1-2.5-5.5-5.5-5.6v1.3c2.3,0.1,4.1,2,4.1,4.3
				c0,0.2,0,0.5-0.1,0.7l-0.1,0.8h0.7c0.8,0,1.5,0.4,1.9,1H3.6v1.3h8.7L12.1,12.9z"/>
			<path class="st0" d="M46.2,13.7c-2.6,0-4.8,1.8-5.4,4.3h-0.1l0,0l0,0c-1.2,0.5-2.3,1.3-3,2.4c-0.3,0.5-0.6,1.1-0.7,1.8l-0.2,0.8
				h9.5v-1.3h-7.7c0.1-0.2,0.2-0.4,0.3-0.6c0.5-0.9,1.3-1.5,2.3-1.9l0,0c0,0,0.1,0,0.1,0c0.1-0.1,0.3-0.1,0.5-0.1
				c1.1-0.3,2.3-0.1,3.3,0.5l0.7-1.1c-1-0.6-2.2-0.8-3.3-0.7c0.6-1.6,2.1-2.7,3.9-2.7c0,0,0,0,0.1,0v-1.3l0,0L46.2,13.7z"/>
			<path class="st0" d="M35.1,27.5L32,32.3L30.3,34c-0.7,0.5-1,1.3-1,2.2v5.1h2.7V40h-1.3v-1.3h1.3v-1.3h-1.3v-1.2
				c0-0.5,0.2-0.9,0.6-1.2l1.6-1.6H44V28h1.3v5.4h1V28v-0.1v-1.2h-9.7C35.9,26.7,35.3,27,35.1,27.5z M42.7,32h-8.9l2.5-3.8
				c0.1-0.1,0.2-0.2,0.4-0.2h6.1V32z"/>
			<path class="st0" d="M40.7,39.7c0-1.1-0.4-2.1-1.2-2.8c-0.7-0.7-1.8-1.2-2.9-1.2c-1.1,0-2.1,0.4-2.9,1.2
				c-0.7,0.7-1.2,1.7-1.2,2.8c0,2.2,1.8,4,4,4C38.9,43.7,40.7,41.9,40.7,39.7z M33.9,39.7c0-0.7,0.3-1.4,0.8-1.9
				c0.5-0.5,1.2-0.8,1.9-0.8c0.7,0,1.4,0.3,1.9,0.8c0.5,0.5,0.8,1.2,0.8,1.9c0,1.5-1.2,2.7-2.7,2.7C35.1,42.3,33.9,41.1,33.9,39.7z"
				/>
			<polygon class="st0" points="45.3,34.7 43.9,34.7 43.9,40 42,40 42,41.3 46.3,41.3 46.3,40 45.3,40 			"/>
			<polygon class="st0" points="3.6,46.3 3.6,46.3 46.3,46.3 46.3,46.3 46.3,45 3.6,45 			"/>
			<path class="st0" d="M27.6,43.7V21h4c1.5,0,2.7-1.2,2.7-2.7v-12c0-1.5-1.2-2.7-2.7-2.7h-12c-1.5,0-2.7,1.2-2.7,2.7v12
				c0,1.5,1.2,2.7,2.7,2.7h4v22.8h1.3V21h1.3v22.8H27.6z M19.6,19.7c-0.7,0-1.3-0.6-1.3-1.3v-12c0-0.7,0.6-1.3,1.3-1.3h12
				c0.7,0,1.3,0.6,1.3,1.3v12c0,0.7-0.6,1.3-1.3,1.3H19.6z"/>
		</g>
	</g>
</g>
</svg>
