<?xml version="1.0" encoding="utf-8"?>
<!-- Generator: Adobe Illustrator 23.1.1, SVG Export Plug-In . SVG Version: 6.00 Build 0)  -->
<svg version="1.1" id="Layer_1" xmlns="http://www.w3.org/2000/svg" xmlns:xlink="http://www.w3.org/1999/xlink" x="0px" y="0px"
	 viewBox="0 0 50 50" style="enable-background:new 0 0 50 50;" xml:space="preserve">
<style type="text/css">
	.st0{fill:#5C1A89;stroke:#5C1A89;stroke-width:0.25;stroke-miterlimit:10;}
</style>
<g id="Слой_2">
	<g>
		<g>
			<g>
				<path class="st0" d="M44.2,46.2H24.3c-0.4,0-0.7-0.3-0.7-0.7v-41c0-0.4,0.3-0.7,0.7-0.7h19.9c0.4,0,0.7,0.3,0.7,0.7v41
					C44.9,45.9,44.6,46.2,44.2,46.2z M25,44.9h18.5V5.1H25V44.9z"/>
			</g>
			<g>
				<path class="st0" d="M45.5,46.2h-41c-0.4,0-0.7-0.3-0.7-0.7s0.3-0.7,0.7-0.7h41c0.4,0,0.7,0.3,0.7,0.7S45.9,46.2,45.5,46.2z"/>
			</g>
			<g>
				<path class="st0" d="M24.3,46.2H5.8c-0.4,0-0.7-0.3-0.7-0.7V25.7c0-0.4,0.3-0.7,0.7-0.7h18.5c0.4,0,0.7,0.3,0.7,0.7v19.9
					C25,45.9,24.7,46.2,24.3,46.2z M6.5,44.9h17.2V26.3H6.5V44.9z"/>
			</g>
			<g>
				<path class="st0" d="M5.8,26.3H4.5c-0.4,0-0.7-0.3-0.7-0.7c0-0.4,0.3-0.7,0.7-0.7h1.3c0.4,0,0.7,0.3,0.7,0.7
					C6.5,26,6.2,26.3,5.8,26.3z"/>
			</g>
			<g>
				<path class="st0" d="M24.3,31H5.8c-0.4,0-0.7-0.3-0.7-0.7c0-0.4,0.3-0.7,0.7-0.7h18.5c0.4,0,0.7,0.3,0.7,0.7
					C25,30.7,24.7,31,24.3,31z"/>
			</g>
			<g>
				<path class="st0" d="M17.1,28.3h-4c-0.4,0-0.7-0.3-0.7-0.7c0-0.4,0.3-0.7,0.7-0.7h4c0.4,0,0.7,0.3,0.7,0.7
					C17.7,28,17.4,28.3,17.1,28.3z"/>
			</g>
			<g>
				<path class="st0" d="M15.1,46.2c-0.4,0-0.7-0.3-0.7-0.7V30.3c0-0.4,0.3-0.7,0.7-0.7c0.4,0,0.7,0.3,0.7,0.7v15.2
					C15.7,45.9,15.4,46.2,15.1,46.2z"/>
			</g>
			<g>
				<path class="st0" d="M17.1,40.2c-0.4,0-0.7-0.3-0.7-0.7v-4c0-0.4,0.3-0.7,0.7-0.7c0.4,0,0.7,0.3,0.7,0.7v4
					C17.7,39.9,17.4,40.2,17.1,40.2z"/>
			</g>
			<g>
				<path class="st0" d="M13.1,40.2c-0.4,0-0.7-0.3-0.7-0.7v-4c0-0.4,0.3-0.7,0.7-0.7s0.7,0.3,0.7,0.7v4
					C13.7,39.9,13.4,40.2,13.1,40.2z"/>
			</g>
			<g>
				<path class="st0" d="M17.7,12.4H5.8c-0.4,0-0.7-0.3-0.7-0.7V5.1c0-0.4,0.3-0.7,0.7-0.7h11.9c0.4,0,0.7,0.3,0.7,0.7v6.6
					C18.4,12.1,18.1,12.4,17.7,12.4z M6.5,11.1h10.6V5.8H6.5V11.1z"/>
			</g>
			<g>
				<path class="st0" d="M44.2,26.3H24.3c-0.4,0-0.7-0.3-0.7-0.7c0-0.4,0.3-0.7,0.7-0.7h19.9c0.4,0,0.7,0.3,0.7,0.7
					C44.9,26,44.6,26.3,44.2,26.3z"/>
			</g>
			<g>
				<path class="st0" d="M37.6,15.7H31c-0.4,0-0.7-0.3-0.7-0.7v-4c0-0.4,0.3-0.7,0.7-0.7h6.6c0.4,0,0.7,0.3,0.7,0.7v4
					C38.2,15.4,37.9,15.7,37.6,15.7z M31.6,14.4h5.3v-2.6h-5.3V14.4z"/>
			</g>
			<g>
				<path class="st0" d="M27,23.7c-0.4,0-0.7-0.3-0.7-0.7V11.1c0-0.4,0.3-0.7,0.7-0.7s0.7,0.3,0.7,0.7V23
					C27.6,23.4,27.4,23.7,27,23.7z"/>
			</g>
			<g>
				<path class="st0" d="M27,42.9c-0.4,0-0.7-0.3-0.7-0.7V30.3c0-0.4,0.3-0.7,0.7-0.7s0.7,0.3,0.7,0.7v11.9
					C27.6,42.6,27.4,42.9,27,42.9z"/>
			</g>
		</g>
	</g>
</g>
</svg>
